{
  "development": {
    "username": "usbornebooktique-api_user",
    "password": "apipassword",
    "database": "usbornebooktique-api_development",
    "host": "localhost",
    "dialect": "mysql"
  },
  "test": {
    "username": "usbornebooktique-api_user",
    "password": "apipassword",
    "database": "usbornebooktique-api_test",
    "host": "localhost",
    "dialect": "mysql"
  },
  "production": {
    "username": "usbornebooktique-api_user",
    "password": "apipassword",
    "database": "usbornebooktique-api_production",
    "host": "localhost",
    "dialect": "mysql"
  }
}
